my_user.c:19:6:wave_init	16	static
my_user.c:29:6:wave_fillbuffer	24	static
my_user.c:55:6:PlaybackData	24	static
my_user.c:65:6:uart_receive	8	static
my_user.c:70:6:uart_transmit	8	static
my_user.c:75:6:comREC	4	static
my_user.c:99:6:comPlay	4	static
my_user.c:123:6:comStop	4	static
my_user.c:141:6:RESETfunc	8	static
my_user.c:165:6:Stop	16	static
my_user.c:192:6:Record	32	static
my_user.c:318:6:Playfunc	32	static
